time	time_coup_before	name	name_coup_before
2476-11-15	2476-06-20	การเลือกตั้ง ส.ส. 15 พฤศจิกายน 2476	รัฐประหาร มิ.ย. 2476
2480-11-07	2476-06-20	การเลือกตั้ง ส.ส. 7 พฤศจิกายน 2480	รัฐประหาร มิ.ย. 2476
2481-11-12	2476-06-20	การเลือกตั้ง ส.ส. 12 พฤศจิกายน 2481	รัฐประหาร มิ.ย. 2476
2489-01-06	2476-06-20	การเลือกตั้ง ส.ส. 6 มกราคม 2489	รัฐประหาร มิ.ย. 2476
2489-08-05	2476-06-20	การเลือกตั้ง ส.ส. 5 สิงหาคม 2489	รัฐประหาร มิ.ย. 2476
2491-01-29	2490-11-08	การเลือกตั้ง ส.ส. 29 มกราคม 2491	รัฐประหาร 2490
2492-06-05	2491-04-06	การเลือกตั้ง ส.ส. 5 มิถุนายน 2492	รัฐประหาร 2491
2495-02-26	2494-11-29	การเลือกตั้ง ส.ส. 26 กุมภาพันธ์ 2495	รัฐประหาร 2494
2500-02-26	2494-11-29	การเลือกตั้ง ส.ส. 26 กุมภาพันธ์ 2500	รัฐประหาร 2494
2500-12-15	2500-09-16	การเลือกตั้ง ส.ส. 15 ธันวาคม 2500	รัฐประหาร 2500
2512-02-10	2501-10-20	การเลือกตั้ง ส.ส. 10 กุมภาพันธ์ 2512	รัฐประหาร 2501
2518-01-26	2514-11-17	การเลือกตั้ง ส.ส. 26 มกราคม 2518	รัฐประหาร 2514
2519-04-04	2514-11-17	การเลือกตั้ง ส.ส. 4 เมษายน 2519	รัฐประหาร 2514
2522-04-22	2520-10-20	การเลือกตั้ง ส.ส. 22 เมษายน 2522	รัฐประหาร 2520
2526-04-18	2520-10-20	การเลือกตั้ง ส.ส. 18 เมษายน 2526	รัฐประหาร 2520
2529-07-27	2520-10-20	การเลือกตั้ง ส.ส. 27 กรกฎาคม 2529	รัฐประหาร 2520
2531-07-24	2520-10-20	การเลือกตั้ง ส.ส. 24 กรกฎาคม 2531	รัฐประหาร 2520
2535-03-22	2534-02-23	การเลือกตั้ง ส.ส. 22 มีนาคม 2535	รัฐประหาร 2534
2535-09-13	2534-02-23	การเลือกตั้ง ส.ส. 13 กันยายน 2535	รัฐประหาร 2534
2538-07-02	2534-02-23	การเลือกตั้ง ส.ส. 2 กรกฎาคม 2538	รัฐประหาร 2534
2539-11-17	2534-02-23	การเลือกตั้ง ส.ส. 17 พฤศจิกายน 2539	รัฐประหาร 2534
2544-01-06	2534-02-23	การเลือกตั้ง ส.ส. 6 มกราคม 2544	รัฐประหาร 2534
2548-02-06	2534-02-23	การเลือกตั้ง ส.ส. 6 กุมภาพันธ์ 2548	รัฐประหาร 2534
2549-04-02	2534-02-23	การเลือกตั้ง ส.ส. 2 เมษายน 2549	รัฐประหาร 2534
2550-12-23	2549-09-19	การเลือกตั้ง ส.ส. 23 ธันวาคม 2550	รัฐประหาร 2549
2554-07-03	2549-09-19	การเลือกตั้ง ส.ส. 3 กรกฎาคม 2554	รัฐประหาร 2549
2557-02-02	2549-09-19	การเลือกตั้ง ส.ส. 2 กุมภาพันธ์ 2557	รัฐประหาร 2549
